[
  {
    "_id": 101,
    "Account_Number": 1234567890, 
    "Account_Name":"Vamshi",   
    "Account_balance": 500,
    "Account_SSN":324342535342
  },
  {
    "_id": 102,
    "Account_Number": 1234567840, 
    "Account_Name":"Sravya",   
    "Account_balance": 400,
    "Account_SSN":324344535342
  },
  {
    "_id": 103,
    "Account_Number": 1234567940, 
    "Account_Name":"Vinusha",   
    "Account_balance": 700,
    "Account_SSN":324644535342
  },
  {
    "_id": 104,
    "Account_Number": 1234577940, 
    "Account_Name":"Rajesh",   
    "Account_balance": 800,
    "Account_SSN":323644535342
  }
 
]